What influences our physical and mental health?
…
set.seed(0)

counties_sample <- counties_clean %>%
  sample_n(size = 1200, replace = FALSE)

4 The Tidy Tibble

4.1 Listing the Tibble

Lets take a look at our tidy tibble.

counties_sample

# A tibble: 1,200 x 10
   CountyState_ID Poor_PHealth Poor_MHealth_Hi Arthritis Stroke   CKD
   <chr>                 <dbl> <ord>                <dbl>  <dbl> <dbl>
 1 Greene-MS              28.4 1                     73.1    2.9  31.5
 2 Christian-KY           32.8 1                     77.6    3.3  35.8
 3 Sangamon-IL            26.5 0                     74.8    2.6  24.5
 4 McIntosh-OK            28.7 1                     74.4    3.3  31.3
 5 Hodgeman-KS            22.4 0                     72.5    2.5  22.2
 6 Jefferson-MO           28.7 1                     74.8    2.5  24.3
 7 Jones-GA               26   0                     77.2    3    27.4
 8 Lee-SC                 28.7 1                     79.4    3.9  34.3
 9 Grand-CO               21.8 0                     65.1    2.5  15.8
10 St. Mary's-MD          28.2 0                     77.4    2.5  24  
#  with 1,190 more rows, and 4 more variables: Less_Sleep <dbl>,
#   Binge_Drinking <dbl>, Doc_Visit_Quar <ord>, No_Leisure_Exer_Quin <ord>
…
