…
Here’s a listing of the resulting tibble.

``` r
library(here)
library(tidyverse)

oh20 <- read_csv(here("data", "oh_counties_2020.csv")) 

oh20 <- oh20 %>%
    mutate(fips = as.character(fips))

oh20
```

    # A tibble: 88 x 43
       fips  state county years_lost_rate sroh_fairpoor phys_days ment_days lbw_pct
       <chr> <chr> <chr>            <dbl>         <dbl>     <dbl>     <dbl>   <dbl>
     1 39001 Ohio  Adams            12223          22.3      4.94      4.83    9.05
     2 39003 Ohio  Allen             9037          16.5      4.12      4.4     9.35
     3 39005 Ohio  Ashla~            7483          16.8      4.09      4.47    5.96
     4 39007 Ohio  Ashta~           10013          16.8      4.18      4.57    8.16
     5 39009 Ohio  Athens            7014          20.6      4.66      4.92    8.55
     6 39011 Ohio  Augla~            6454          14.6      3.73      4.27    7.32
     7 39013 Ohio  Belmo~            8289          18.0      3.87      4.46    8.34
     8 39015 Ohio  Brown            10748          17.3      4.19      4.58    7.39
     9 39017 Ohio  Butler            9429          16.5      4         4.14    7.99
    10 39019 Ohio  Carro~            8073          16.2      4.08      4.39    7.61
    # ... with 78 more rows, and 35 more variables: smoker_pct <dbl>,
    #   obese_pct <dbl>, food_env <dbl>, inactive_pct <dbl>, exer_access <dbl>,
    #   exc_drink <dbl>, alc_drive <dbl>, sti_rate <dbl>, teen_births <dbl>,
    #   uninsured <dbl>, pcp_ratio <dbl>, prev_hosp <dbl>, hsgrads <dbl>,
    #   unemployed <dbl>, poor_kids <dbl>, income_ratio <dbl>, associations <dbl>,
    #   pm2.5 <dbl>, h2oviol <chr>, sev_housing <dbl>, drive_alone <dbl>,
    #   `age-adj-mortality` <dbl>, dm_prev <dbl>, freq_phys_distress <dbl>,
    #   freq_mental_distress <dbl>, food_insecure <dbl>, insuff_sleep <dbl>,
    #   median_income <dbl>, population <dbl>, age65plus <dbl>, `african-am` <dbl>,
…
