432 Lab 01
…
Import the hbp3456 Data

To start, well load the hbp3456.csv data set from a sub-folder called data in the projects directory.

lab01 <- read_csv(here("data", "hbp3456.csv")) %>%
    mutate(record = as.character(record))

lab01

# A tibble: 3,456 x 23
   record practice provider   age race  eth_hisp sex   insurance income hsgrad
   <chr>  <chr>    <chr>    <dbl> <chr> <chr>    <chr> <chr>      <dbl>  <dbl>
 1 900018 Walnut   W_05        64 <NA>  <NA>     F     Medicare   15600   83  
 2 900024 King     K_07        74 AA_B No       F     Medicare   16200   92.8
 3 900037 Sycamore S_06        60 AA_B No       F     Commerci  21400   79  
 4 900043 Highland H_07        46 White Yes      F     Medicaid   38300   83.5
 5 900057 Sycamore S_04        59 AA_B No       M     Commerci  23200   78.7
 6 900062 Elm      E_03        54 AA_B No       M     Commerci  48600   85.5
 7 900076 Plympton P_03        74 White No       M     Commerci  64200   92.9
 8 900082 Elm      E_06        73 White No       M     Medicare   48600   85.5
 9 900097 Sycamore S_10        58 AA_B No       F     Commerci  29900   86.2
10 900101 Center   C_01        46 AA_B No       M     Uninsured  63600   97.5
#  with 3,446 more rows, and 13 more variables: tobacco <chr>,
#   depr_diag <chr>, height <dbl>, weight <dbl>, ldl <dbl>, statin <chr>,
#   bp_med <chr>, sbp <dbl>, dbp <dbl>, visits_1 <dbl>, visits_2 <dbl>,
#   acearb <chr>, betab <chr>
…
1.1 Create our working data set (q01_clean)

First, were going to clean up the data set to include only subjects that were seen at the Highland and Sycamore practice. Next, well convert all character variables into factors, except for the record variable, which needs to remain a character. For ease of viewing, well select only the variables of interest for this question (record, age, race, eth_hisp, sex, insurance, height, weight, sbp, dbp). At this point, lets take a look at the data set weve got so far.

The preview shows us that all the variables have the appropriate type. Of note, none of the current categorical variables need to be ordered.

q01_clean <- lab01 %>%
    filter(practice %in% c('Highland', 'Sycamore')) %>%
    type.convert() %>%                                      # convert all character variables into factors
    mutate(record = as.character(record)) %>%
    select(record, practice, age, race, eth_hisp, sex, insurance, height, weight, sbp, dbp)

q01_clean

# A tibble: 864 x 11
   record practice   age race  eth_hisp sex   insurance height weight   sbp
   <chr>  <fct>    <int> <fct> <fct>    <fct> <fct>      <dbl>  <dbl> <int>
 1 900037 Sycamore    60 AA_B No       F     Commerci   1.63   54.9   134
 2 900043 Highland    46 White Yes      F     Medicaid    1.58   58.5   145
 3 900057 Sycamore    59 AA_B No       M     Commerci   1.85   83.5   128
 4 900097 Sycamore    58 AA_B No       F     Commerci   1.69  123     138
 5 900147 Sycamore    47 AA_B No       M     Commerci   1.87  140.    135
 6 900173 Highland    76 White No       F     Medicare    1.54   47.6   106
 7 900207 Sycamore    60 White No       M     Commerci   1.75  112.    132
 8 900277 Sycamore    55 AA_B No       M     Commerci   1.73   84.4   138
 9 900347 Sycamore    80 AA_B No       F     Medicare    1.71   78     122
10 900367 Sycamore    71 AA_B No       F     Medicare    1.63   77.1   130
#  with 854 more rows, and 1 more variable: dbp <int>
…
