…
Your resulting `hbpq2` tibble should look like this:

``` r
hbpq2
```

    # A tibble: 1,000 x 7
       record income hsgrad race     eth_hisp tobacco sqrtinc
       <chr>   <int>  <dbl> <fct>    <fct>    <fct>     <dbl>
     1 903574  34800   94.9 White    No       Current    187.
     2 926837  24700   74.2 AA_Black No       Current    157.
     3 929198  14700   40   AA_Black No       Never      121.
     4 932367  24700   74.2 AA_Black No       Never      157.
     5 925592  65600   92.2 <NA>     <NA>     Never      256.
     6 932404  18500   67.8 AA_Black No       Never      136.
     7 933953  21500   84.4 White    No       Never      147.
     8 911527  23000   83.6 White    No       Never      152.
     9 918228  13400   70.3 AA_Black No       Current    116.
    10 930262  48300   90   <NA>     <NA>     Never      220.
    # ... with 990 more rows
…
